<?xml version="1.0" encoding="UTF-8"?>
<con:resource name="/browse/new-releases" path="/browse/new-releases" id="d3646a86-4ad8-40e2-8ad4-15bd84282f9f" xmlns:xsi="http://www.w3.org/2001/XMLSchema-instance" xmlns:con="http://eviware.com/soapui/config">
  <con:settings>
    <con:setting id="0489d335-8cdb-4638-b571-385d2497ccf5fileName">%2Fbrowse%2Fnew-releases</con:setting>
    <con:setting id="d3646a86-4ad8-40e2-8ad4-15bd84282f9ffileName">%2Fbrowse%2Fnew-releases</con:setting>
  </con:settings>
  <con:parameters/>
  <con:method name="get-new-releases" id="44968077-7d51-406c-ab73-e591edc3f0e2" method="GET">
    <con:description>Get a list of new album releases featured in Spotify (shown, for example, on a Spotify player’s “Browse” tab).</con:description>
    <con:settings/>
    <con:parameters>
      <con:parameter>
        <con:name>country</con:name>
        <con:style>QUERY</con:style>
      </con:parameter>
      <con:parameter>
        <con:name>limit</con:name>
        <con:value>20</con:value>
        <con:style>QUERY</con:style>
        <con:default>20</con:default>
      </con:parameter>
      <con:parameter>
        <con:name>offset</con:name>
        <con:value>0</con:value>
        <con:style>QUERY</con:style>
        <con:default>0</con:default>
      </con:parameter>
    </con:parameters>
    <con:representation type="RESPONSE">
      <con:mediaType>application/json</con:mediaType>
      <con:status>200</con:status>
      <con:params/>
      <con:description>A paged set of albums</con:description>
      <con:sampleContent>{
  "albums" : {
    "href" : "https://api.spotify.com/v1/me/shows?offset=0&amp;limit=20\n",
    "items" : [ {
      "album_type" : "compilation",
      "total_tracks" : 9,
      "available_markets" : [ "CA", "BR", "IT" ],
      "external_urls" : {
        "spotify" : "string"
      },
      "href" : "string",
      "id" : "2up3OPMp9Tb4dAKM2erWXQ",
      "images" : [ {
        "url" : "https://i.scdn.co/image/ab67616d00001e02ff9ca10b55ce82ae553c8228\n",
        "height" : 300,
        "width" : 300
      } ],
      "name" : "string",
      "release_date" : "1981-12",
      "release_date_precision" : "year",
      "restrictions" : {
        "reason" : "market"
      },
      "type" : "album",
      "uri" : "spotify:album:2up3OPMp9Tb4dAKM2erWXQ",
      "album_group" : "compilation",
      "artists" : [ {
        "external_urls" : {
          "spotify" : "string"
        },
        "href" : "string",
        "id" : "string",
        "name" : "string",
        "type" : "artist",
        "uri" : "string"
      } ]
    } ],
    "limit" : 20,
    "next" : "https://api.spotify.com/v1/me/shows?offset=1&amp;limit=1",
    "offset" : 0,
    "previous" : "https://api.spotify.com/v1/me/shows?offset=1&amp;limit=1",
    "total" : 4
  }
}</con:sampleContent>
    </con:representation>
    <con:representation type="RESPONSE">
      <con:mediaType>application/json</con:mediaType>
      <con:status>401</con:status>
      <con:params/>
      <con:description>Bad or expired token. This can happen if the user revoked a token or
the access token has expired. You should re-authenticate the user.</con:description>
      <con:sampleContent>{
  "error" : {
    "status" : 0,
    "message" : "string"
  }
}</con:sampleContent>
    </con:representation>
    <con:representation type="RESPONSE">
      <con:mediaType>application/json</con:mediaType>
      <con:status>403</con:status>
      <con:params/>
      <con:description>Bad OAuth request (wrong consumer key, bad nonce, expired
timestamp...). Unfortunately, re-authenticating the user won't help here.</con:description>
      <con:sampleContent>{
  "error" : {
    "status" : 0,
    "message" : "string"
  }
}</con:sampleContent>
    </con:representation>
    <con:representation type="RESPONSE">
      <con:mediaType>application/json</con:mediaType>
      <con:status>429</con:status>
      <con:params/>
      <con:description>The app has exceeded its rate limits.</con:description>
      <con:sampleContent>{
  "error" : {
    "status" : 0,
    "message" : "string"
  }
}</con:sampleContent>
    </con:representation>
    <con:request name="Request 1" id="57900b81-66d1-4db4-aecc-7b6f2069d503" mediaType="application/json">
      <con:settings/>
      <con:endpoint>https://api.spotify.com/v1</con:endpoint>
      <con:credentials>
        <con:selectedAuthProfile>No Authorization</con:selectedAuthProfile>
        <con:authType>No Authorization</con:authType>
      </con:credentials>
      <con:parameters/>
      <con:environmentSpec>
        <con:entry environmentId="6faab8de-327e-404a-ad6a-92c2673cba40">
          <con:authProfile>Inherit From Parent</con:authProfile>
        </con:entry>
        <con:entry environmentId="d7b5f83c-9bb2-4dbe-b0f3-66f69604eefd">
          <con:authProfile>Inherit From Parent</con:authProfile>
        </con:entry>
      </con:environmentSpec>
    </con:request>
    <con:environmentSpec>
      <con:entry environmentId="6faab8de-327e-404a-ad6a-92c2673cba40">
        <con:authProfile>Inherit From Parent</con:authProfile>
      </con:entry>
      <con:entry environmentId="d7b5f83c-9bb2-4dbe-b0f3-66f69604eefd">
        <con:authProfile>Inherit From Parent</con:authProfile>
      </con:entry>
    </con:environmentSpec>
  </con:method>
  <con:environmentSpec>
    <con:entry environmentId="6faab8de-327e-404a-ad6a-92c2673cba40">
      <con:authProfile>Inherit From Parent</con:authProfile>
    </con:entry>
    <con:entry environmentId="d7b5f83c-9bb2-4dbe-b0f3-66f69604eefd">
      <con:authProfile>Inherit From Parent</con:authProfile>
    </con:entry>
  </con:environmentSpec>
</con:resource>
