<?xml version="1.0" encoding="UTF-8"?>
<con:resource name="/me/top/tracks" path="/me/top/tracks" id="3c1f2d1d-c2e2-4d6d-be83-d605fca34fa5" xmlns:xsi="http://www.w3.org/2001/XMLSchema-instance" xmlns:con="http://eviware.com/soapui/config">
  <con:settings>
    <con:setting id="13f128d9-abdb-4b70-9e29-4610e3341debfileName">%2Fme%2Ftop%2Ftracks</con:setting>
    <con:setting id="3c1f2d1d-c2e2-4d6d-be83-d605fca34fa5fileName">%2Fme%2Ftop%2Ftracks</con:setting>
  </con:settings>
  <con:parameters/>
  <con:method name="get-users-top-tracks" id="5077ada3-dffe-422f-8b35-82bb52a53674" method="GET">
    <con:description>Get the current user's top tracks based on calculated affinity.</con:description>
    <con:settings/>
    <con:parameters>
      <con:parameter>
        <con:name>time_range</con:name>
        <con:value>medium_term</con:value>
        <con:style>QUERY</con:style>
        <con:default>medium_term</con:default>
      </con:parameter>
      <con:parameter>
        <con:name>limit</con:name>
        <con:value>20</con:value>
        <con:style>QUERY</con:style>
        <con:default>20</con:default>
      </con:parameter>
      <con:parameter>
        <con:name>offset</con:name>
        <con:value>0</con:value>
        <con:style>QUERY</con:style>
        <con:default>0</con:default>
      </con:parameter>
    </con:parameters>
    <con:representation type="RESPONSE">
      <con:mediaType>application/json</con:mediaType>
      <con:status>200</con:status>
      <con:params/>
      <con:description>Pages of tracks</con:description>
      <con:sampleContent>{
  "href" : "https://api.spotify.com/v1/me/shows?offset=0&amp;limit=20\n",
  "items" : [ {
    "album" : {
      "album_type" : "compilation",
      "total_tracks" : 9,
      "available_markets" : [ "CA", "BR", "IT" ],
      "external_urls" : {
        "spotify" : "string"
      },
      "href" : "string",
      "id" : "2up3OPMp9Tb4dAKM2erWXQ",
      "images" : [ {
        "url" : "https://i.scdn.co/image/ab67616d00001e02ff9ca10b55ce82ae553c8228\n",
        "height" : 300,
        "width" : 300
      } ],
      "name" : "string",
      "release_date" : "1981-12",
      "release_date_precision" : "year",
      "restrictions" : {
        "reason" : "market"
      },
      "type" : "album",
      "uri" : "spotify:album:2up3OPMp9Tb4dAKM2erWXQ",
      "album_group" : "compilation",
      "artists" : [ {
        "external_urls" : {
          "spotify" : "string"
        },
        "href" : "string",
        "id" : "string",
        "name" : "string",
        "type" : "artist",
        "uri" : "string"
      } ]
    },
    "artists" : [ {
      "external_urls" : {
        "spotify" : "string"
      },
      "followers" : {
        "href" : "string",
        "total" : 0
      },
      "genres" : [ "Prog rock", "Grunge" ],
      "href" : "string",
      "id" : "string",
      "images" : [ {
        "url" : "https://i.scdn.co/image/ab67616d00001e02ff9ca10b55ce82ae553c8228\n",
        "height" : 300,
        "width" : 300
      } ],
      "name" : "string",
      "popularity" : 0,
      "type" : "artist",
      "uri" : "string"
    } ],
    "available_markets" : [ "string" ],
    "disc_number" : 0,
    "duration_ms" : 0,
    "explicit" : true,
    "external_ids" : {
      "isrc" : "string",
      "ean" : "string",
      "upc" : "string"
    },
    "external_urls" : {
      "spotify" : "string"
    },
    "href" : "string",
    "id" : "string",
    "is_playable" : true,
    "linked_from" : {
      "external_urls" : {
        "spotify" : "string"
      },
      "href" : "string",
      "id" : "string",
      "type" : "string",
      "uri" : "string"
    },
    "restrictions" : {
      "reason" : "string"
    },
    "name" : "string",
    "popularity" : 0,
    "preview_url" : "string",
    "track_number" : 0,
    "type" : "string",
    "uri" : "string",
    "is_local" : true
  } ],
  "limit" : 20,
  "next" : "https://api.spotify.com/v1/me/shows?offset=1&amp;limit=1",
  "offset" : 0,
  "previous" : "https://api.spotify.com/v1/me/shows?offset=1&amp;limit=1",
  "total" : 4
}</con:sampleContent>
    </con:representation>
    <con:representation type="RESPONSE">
      <con:mediaType>application/json</con:mediaType>
      <con:status>401</con:status>
      <con:params/>
      <con:description>Bad or expired token. This can happen if the user revoked a token or
the access token has expired. You should re-authenticate the user.</con:description>
      <con:sampleContent>{
  "error" : {
    "status" : 0,
    "message" : "string"
  }
}</con:sampleContent>
    </con:representation>
    <con:representation type="RESPONSE">
      <con:mediaType>application/json</con:mediaType>
      <con:status>403</con:status>
      <con:params/>
      <con:description>Bad OAuth request (wrong consumer key, bad nonce, expired
timestamp...). Unfortunately, re-authenticating the user won't help here.</con:description>
      <con:sampleContent>{
  "error" : {
    "status" : 0,
    "message" : "string"
  }
}</con:sampleContent>
    </con:representation>
    <con:representation type="RESPONSE">
      <con:mediaType>application/json</con:mediaType>
      <con:status>429</con:status>
      <con:params/>
      <con:description>The app has exceeded its rate limits.</con:description>
      <con:sampleContent>{
  "error" : {
    "status" : 0,
    "message" : "string"
  }
}</con:sampleContent>
    </con:representation>
    <con:request name="Request 1" id="ec7c2b05-7fee-4e2a-8250-4bec06d90942" mediaType="application/json">
      <con:settings/>
      <con:endpoint>https://api.spotify.com/v1</con:endpoint>
      <con:credentials>
        <con:selectedAuthProfile>No Authorization</con:selectedAuthProfile>
        <con:authType>No Authorization</con:authType>
      </con:credentials>
      <con:parameters/>
      <con:environmentSpec>
        <con:entry environmentId="6faab8de-327e-404a-ad6a-92c2673cba40">
          <con:authProfile>Inherit From Parent</con:authProfile>
        </con:entry>
        <con:entry environmentId="d7b5f83c-9bb2-4dbe-b0f3-66f69604eefd">
          <con:authProfile>Inherit From Parent</con:authProfile>
        </con:entry>
      </con:environmentSpec>
    </con:request>
    <con:environmentSpec>
      <con:entry environmentId="6faab8de-327e-404a-ad6a-92c2673cba40">
        <con:authProfile>Inherit From Parent</con:authProfile>
      </con:entry>
      <con:entry environmentId="d7b5f83c-9bb2-4dbe-b0f3-66f69604eefd">
        <con:authProfile>Inherit From Parent</con:authProfile>
      </con:entry>
    </con:environmentSpec>
  </con:method>
  <con:environmentSpec>
    <con:entry environmentId="6faab8de-327e-404a-ad6a-92c2673cba40">
      <con:authProfile>Inherit From Parent</con:authProfile>
    </con:entry>
    <con:entry environmentId="d7b5f83c-9bb2-4dbe-b0f3-66f69604eefd">
      <con:authProfile>Inherit From Parent</con:authProfile>
    </con:entry>
  </con:environmentSpec>
</con:resource>
