<?xml version="1.0" encoding="UTF-8"?>
<con:resource name="/me/episodes" path="/me/episodes" id="872f5ecb-90cc-4966-96d1-91a3dc1e2775" xmlns:xsi="http://www.w3.org/2001/XMLSchema-instance" xmlns:con="http://eviware.com/soapui/config">
  <con:settings>
    <con:setting id="362e392d-ce34-4cee-8a6e-713cba845f02fileName">%2Fme%2Fepisodes</con:setting>
    <con:setting id="872f5ecb-90cc-4966-96d1-91a3dc1e2775fileName">%2Fme%2Fepisodes</con:setting>
  </con:settings>
  <con:parameters/>
  <con:method name="get-users-saved-episodes" id="e209a8c6-efd5-4c0b-ad5a-fe6c89ce03f4" method="GET">
    <con:description>Get a list of the episodes saved in the current Spotify user's library.&lt;br>
This API endpoint is in __beta__ and could change without warning. Please share any feedback that you have, or issues that you discover, in our [developer community forum](https://community.spotify.com/t5/Spotify-for-Developers/bd-p/Spotify_Developer).</con:description>
    <con:settings/>
    <con:parameters>
      <con:parameter>
        <con:name>market</con:name>
        <con:style>QUERY</con:style>
      </con:parameter>
      <con:parameter>
        <con:name>limit</con:name>
        <con:value>20</con:value>
        <con:style>QUERY</con:style>
        <con:default>20</con:default>
      </con:parameter>
      <con:parameter>
        <con:name>offset</con:name>
        <con:value>0</con:value>
        <con:style>QUERY</con:style>
        <con:default>0</con:default>
      </con:parameter>
    </con:parameters>
    <con:representation type="RESPONSE">
      <con:mediaType>application/json</con:mediaType>
      <con:status>200</con:status>
      <con:params/>
      <con:description>Pages of saved episodes</con:description>
      <con:sampleContent>{
  "href" : "https://api.spotify.com/v1/me/shows?offset=0&amp;limit=20\n",
  "items" : [ {
    "added_at" : "2015-07-20T15:49:04-07:00",
    "episode" : {
      "audio_preview_url" : "https://p.scdn.co/mp3-preview/2f37da1d4221f40b9d1a98cd191f4d6f1646ad17",
      "description" : "A Spotify podcast sharing fresh insights on important topics of the moment—in a way only Spotify can. You’ll hear from experts in the music, podcast and tech industries as we discover and uncover stories about our work and the world around us.\n",
      "html_description" : "&lt;p>A Spotify podcast sharing fresh insights on important topics of the moment—in a way only Spotify can. You’ll hear from experts in the music, podcast and tech industries as we discover and uncover stories about our work and the world around us.&lt;/p>\n",
      "duration_ms" : 1686230,
      "explicit" : true,
      "external_urls" : {
        "spotify" : "string"
      },
      "href" : "https://api.spotify.com/v1/episodes/5Xt5DXGzch68nYYamXrNxZ",
      "id" : "5Xt5DXGzch68nYYamXrNxZ",
      "images" : [ {
        "url" : "https://i.scdn.co/image/ab67616d00001e02ff9ca10b55ce82ae553c8228\n",
        "height" : 300,
        "width" : 300
      } ],
      "is_externally_hosted" : true,
      "is_playable" : true,
      "language" : "en",
      "languages" : [ "fr", "en" ],
      "name" : "Starting Your Own Podcast: Tips, Tricks, and Advice From Anchor Creators\n",
      "release_date" : "1981-12-15",
      "release_date_precision" : "day",
      "resume_point" : {
        "fully_played" : true,
        "resume_position_ms" : 0
      },
      "type" : "episode",
      "uri" : "spotify:episode:0zLhl3WsOCQHbe1BPTiHgr",
      "restrictions" : {
        "reason" : "string"
      },
      "show" : {
        "available_markets" : [ "string" ],
        "copyrights" : [ {
          "text" : "string",
          "type" : "string"
        } ],
        "description" : "string",
        "html_description" : "string",
        "explicit" : true,
        "external_urls" : {
          "spotify" : "string"
        },
        "href" : "string",
        "id" : "string",
        "images" : [ {
          "url" : "https://i.scdn.co/image/ab67616d00001e02ff9ca10b55ce82ae553c8228\n",
          "height" : 300,
          "width" : 300
        } ],
        "is_externally_hosted" : true,
        "languages" : [ "string" ],
        "media_type" : "string",
        "name" : "string",
        "publisher" : "string",
        "type" : "show",
        "uri" : "string"
      }
    }
  } ],
  "limit" : 20,
  "next" : "https://api.spotify.com/v1/me/shows?offset=1&amp;limit=1",
  "offset" : 0,
  "previous" : "https://api.spotify.com/v1/me/shows?offset=1&amp;limit=1",
  "total" : 4
}</con:sampleContent>
    </con:representation>
    <con:representation type="RESPONSE">
      <con:mediaType>application/json</con:mediaType>
      <con:status>401</con:status>
      <con:params/>
      <con:description>Bad or expired token. This can happen if the user revoked a token or
the access token has expired. You should re-authenticate the user.</con:description>
      <con:sampleContent>{
  "error" : {
    "status" : 0,
    "message" : "string"
  }
}</con:sampleContent>
    </con:representation>
    <con:representation type="RESPONSE">
      <con:mediaType>application/json</con:mediaType>
      <con:status>403</con:status>
      <con:params/>
      <con:description>Bad OAuth request (wrong consumer key, bad nonce, expired
timestamp...). Unfortunately, re-authenticating the user won't help here.</con:description>
      <con:sampleContent>{
  "error" : {
    "status" : 0,
    "message" : "string"
  }
}</con:sampleContent>
    </con:representation>
    <con:representation type="RESPONSE">
      <con:mediaType>application/json</con:mediaType>
      <con:status>429</con:status>
      <con:params/>
      <con:description>The app has exceeded its rate limits.</con:description>
      <con:sampleContent>{
  "error" : {
    "status" : 0,
    "message" : "string"
  }
}</con:sampleContent>
    </con:representation>
    <con:request name="Request 1" id="1f5c5b90-76ef-472c-a5b9-e8bddbdf56b7" mediaType="application/json">
      <con:settings/>
      <con:endpoint>https://api.spotify.com/v1</con:endpoint>
      <con:credentials>
        <con:selectedAuthProfile>No Authorization</con:selectedAuthProfile>
        <con:authType>No Authorization</con:authType>
      </con:credentials>
      <con:parameters/>
      <con:environmentSpec>
        <con:entry environmentId="6faab8de-327e-404a-ad6a-92c2673cba40">
          <con:authProfile>Inherit From Parent</con:authProfile>
        </con:entry>
        <con:entry environmentId="d7b5f83c-9bb2-4dbe-b0f3-66f69604eefd">
          <con:authProfile>Inherit From Parent</con:authProfile>
        </con:entry>
      </con:environmentSpec>
    </con:request>
    <con:environmentSpec>
      <con:entry environmentId="6faab8de-327e-404a-ad6a-92c2673cba40">
        <con:authProfile>Inherit From Parent</con:authProfile>
      </con:entry>
      <con:entry environmentId="d7b5f83c-9bb2-4dbe-b0f3-66f69604eefd">
        <con:authProfile>Inherit From Parent</con:authProfile>
      </con:entry>
    </con:environmentSpec>
  </con:method>
  <con:method name="remove-episodes-user" id="7ccc715c-4c91-4b3e-99f9-5bc6f6a23848" method="DELETE">
    <con:description>Remove one or more episodes from the current user's library.&lt;br>
This API endpoint is in __beta__ and could change without warning. Please share any feedback that you have, or issues that you discover, in our [developer community forum](https://community.spotify.com/t5/Spotify-for-Developers/bd-p/Spotify_Developer).</con:description>
    <con:settings/>
    <con:parameters>
      <con:parameter required="true">
        <con:name>ids</con:name>
        <con:style>QUERY</con:style>
      </con:parameter>
    </con:parameters>
    <con:representation type="RESPONSE">
      <con:mediaType>application/json</con:mediaType>
      <con:status>401</con:status>
      <con:params/>
      <con:description>Bad or expired token. This can happen if the user revoked a token or
the access token has expired. You should re-authenticate the user.</con:description>
      <con:sampleContent>{
  "error" : {
    "status" : 0,
    "message" : "string"
  }
}</con:sampleContent>
    </con:representation>
    <con:representation type="RESPONSE">
      <con:mediaType>application/json</con:mediaType>
      <con:status>403</con:status>
      <con:params/>
      <con:description>Bad OAuth request (wrong consumer key, bad nonce, expired
timestamp...). Unfortunately, re-authenticating the user won't help here.</con:description>
      <con:sampleContent>{
  "error" : {
    "status" : 0,
    "message" : "string"
  }
}</con:sampleContent>
    </con:representation>
    <con:representation type="RESPONSE">
      <con:mediaType>application/json</con:mediaType>
      <con:status>429</con:status>
      <con:params/>
      <con:description>The app has exceeded its rate limits.</con:description>
      <con:sampleContent>{
  "error" : {
    "status" : 0,
    "message" : "string"
  }
}</con:sampleContent>
    </con:representation>
    <con:representation type="REQUEST">
      <con:mediaType>application/json</con:mediaType>
      <con:params/>
      <con:sampleContent>{
  "ids" : [ "string" ]
}</con:sampleContent>
    </con:representation>
    <con:request name="Request 1" id="e0282a4a-4072-4f0a-b450-d89dfd5a2893" mediaType="application/json">
      <con:settings/>
      <con:endpoint>https://api.spotify.com/v1</con:endpoint>
      <con:request>{\r
  "ids" : [ "string" ]\r
}</con:request>
      <con:credentials>
        <con:selectedAuthProfile>No Authorization</con:selectedAuthProfile>
        <con:authType>No Authorization</con:authType>
      </con:credentials>
      <con:parameters/>
      <con:environmentSpec>
        <con:entry environmentId="6faab8de-327e-404a-ad6a-92c2673cba40">
          <con:authProfile>Inherit From Parent</con:authProfile>
        </con:entry>
        <con:entry environmentId="d7b5f83c-9bb2-4dbe-b0f3-66f69604eefd">
          <con:authProfile>Inherit From Parent</con:authProfile>
        </con:entry>
      </con:environmentSpec>
    </con:request>
    <con:environmentSpec>
      <con:entry environmentId="6faab8de-327e-404a-ad6a-92c2673cba40">
        <con:authProfile>Inherit From Parent</con:authProfile>
      </con:entry>
      <con:entry environmentId="d7b5f83c-9bb2-4dbe-b0f3-66f69604eefd">
        <con:authProfile>Inherit From Parent</con:authProfile>
      </con:entry>
    </con:environmentSpec>
  </con:method>
  <con:method name="save-episodes-user" id="66b2eb13-9d57-4cb4-aa08-55af55711c27" method="PUT">
    <con:description>Save one or more episodes to the current user's library.&lt;br>
This API endpoint is in __beta__ and could change without warning. Please share any feedback that you have, or issues that you discover, in our [developer community forum](https://community.spotify.com/t5/Spotify-for-Developers/bd-p/Spotify_Developer).</con:description>
    <con:settings/>
    <con:parameters>
      <con:parameter required="true">
        <con:name>ids</con:name>
        <con:style>QUERY</con:style>
      </con:parameter>
    </con:parameters>
    <con:representation type="RESPONSE">
      <con:mediaType>application/json</con:mediaType>
      <con:status>401</con:status>
      <con:params/>
      <con:description>Bad or expired token. This can happen if the user revoked a token or
the access token has expired. You should re-authenticate the user.</con:description>
      <con:sampleContent>{
  "error" : {
    "status" : 0,
    "message" : "string"
  }
}</con:sampleContent>
    </con:representation>
    <con:representation type="RESPONSE">
      <con:mediaType>application/json</con:mediaType>
      <con:status>403</con:status>
      <con:params/>
      <con:description>Bad OAuth request (wrong consumer key, bad nonce, expired
timestamp...). Unfortunately, re-authenticating the user won't help here.</con:description>
      <con:sampleContent>{
  "error" : {
    "status" : 0,
    "message" : "string"
  }
}</con:sampleContent>
    </con:representation>
    <con:representation type="RESPONSE">
      <con:mediaType>application/json</con:mediaType>
      <con:status>429</con:status>
      <con:params/>
      <con:description>The app has exceeded its rate limits.</con:description>
      <con:sampleContent>{
  "error" : {
    "status" : 0,
    "message" : "string"
  }
}</con:sampleContent>
    </con:representation>
    <con:representation type="REQUEST">
      <con:mediaType>application/json</con:mediaType>
      <con:params/>
      <con:sampleContent>{
  "ids" : [ "string" ]
}</con:sampleContent>
    </con:representation>
    <con:request name="Request 1" id="4d1fe465-3633-41e9-9887-86c54461c5a5" mediaType="application/json">
      <con:settings/>
      <con:endpoint>https://api.spotify.com/v1</con:endpoint>
      <con:request>{\r
  "ids" : [ "string" ]\r
}</con:request>
      <con:credentials>
        <con:selectedAuthProfile>No Authorization</con:selectedAuthProfile>
        <con:authType>No Authorization</con:authType>
      </con:credentials>
      <con:parameters/>
      <con:environmentSpec>
        <con:entry environmentId="6faab8de-327e-404a-ad6a-92c2673cba40">
          <con:authProfile>Inherit From Parent</con:authProfile>
        </con:entry>
        <con:entry environmentId="d7b5f83c-9bb2-4dbe-b0f3-66f69604eefd">
          <con:authProfile>Inherit From Parent</con:authProfile>
        </con:entry>
      </con:environmentSpec>
    </con:request>
    <con:environmentSpec>
      <con:entry environmentId="6faab8de-327e-404a-ad6a-92c2673cba40">
        <con:authProfile>Inherit From Parent</con:authProfile>
      </con:entry>
      <con:entry environmentId="d7b5f83c-9bb2-4dbe-b0f3-66f69604eefd">
        <con:authProfile>Inherit From Parent</con:authProfile>
      </con:entry>
    </con:environmentSpec>
  </con:method>
  <con:environmentSpec>
    <con:entry environmentId="6faab8de-327e-404a-ad6a-92c2673cba40">
      <con:authProfile>Inherit From Parent</con:authProfile>
    </con:entry>
    <con:entry environmentId="d7b5f83c-9bb2-4dbe-b0f3-66f69604eefd">
      <con:authProfile>Inherit From Parent</con:authProfile>
    </con:entry>
  </con:environmentSpec>
</con:resource>
