<?xml version="1.0" encoding="UTF-8"?>
<con:resource name="/shows/{id}/episodes" path="/shows/{id}/episodes" id="85882ac5-2904-4240-babc-3baab563b3e4" xmlns:xsi="http://www.w3.org/2001/XMLSchema-instance" xmlns:con="http://eviware.com/soapui/config">
  <con:settings>
    <con:setting id="3a3ca062-89b8-42c5-bfa7-1fb611212beefileName">%2Fshows%2F%7Bid%7D%2Fepisodes</con:setting>
    <con:setting id="85882ac5-2904-4240-babc-3baab563b3e4fileName">%2Fshows%2F%7Bid%7D%2Fepisodes</con:setting>
  </con:settings>
  <con:parameters/>
  <con:method name="get-a-shows-episodes" id="b09bfdc2-2dfa-414f-8573-e3986fe90373" method="GET">
    <con:description>Get Spotify catalog information about an show’s episodes. Optional parameters can be used to limit the number of episodes returned.</con:description>
    <con:settings/>
    <con:parameters>
      <con:parameter required="true">
        <con:name>id</con:name>
        <con:style>TEMPLATE</con:style>
      </con:parameter>
      <con:parameter>
        <con:name>market</con:name>
        <con:style>QUERY</con:style>
      </con:parameter>
      <con:parameter>
        <con:name>limit</con:name>
        <con:value>20</con:value>
        <con:style>QUERY</con:style>
        <con:default>20</con:default>
      </con:parameter>
      <con:parameter>
        <con:name>offset</con:name>
        <con:value>0</con:value>
        <con:style>QUERY</con:style>
        <con:default>0</con:default>
      </con:parameter>
    </con:parameters>
    <con:representation type="RESPONSE">
      <con:mediaType>application/json</con:mediaType>
      <con:status>200</con:status>
      <con:params/>
      <con:description>Pages of episodes</con:description>
      <con:sampleContent>{
  "href" : "https://api.spotify.com/v1/me/shows?offset=0&amp;limit=20\n",
  "items" : [ {
    "audio_preview_url" : "https://p.scdn.co/mp3-preview/2f37da1d4221f40b9d1a98cd191f4d6f1646ad17",
    "description" : "A Spotify podcast sharing fresh insights on important topics of the moment—in a way only Spotify can. You’ll hear from experts in the music, podcast and tech industries as we discover and uncover stories about our work and the world around us.\n",
    "html_description" : "&lt;p>A Spotify podcast sharing fresh insights on important topics of the moment—in a way only Spotify can. You’ll hear from experts in the music, podcast and tech industries as we discover and uncover stories about our work and the world around us.&lt;/p>\n",
    "duration_ms" : 1686230,
    "explicit" : true,
    "external_urls" : {
      "spotify" : "string"
    },
    "href" : "https://api.spotify.com/v1/episodes/5Xt5DXGzch68nYYamXrNxZ",
    "id" : "5Xt5DXGzch68nYYamXrNxZ",
    "images" : [ {
      "url" : "https://i.scdn.co/image/ab67616d00001e02ff9ca10b55ce82ae553c8228\n",
      "height" : 300,
      "width" : 300
    } ],
    "is_externally_hosted" : true,
    "is_playable" : true,
    "language" : "en",
    "languages" : [ "fr", "en" ],
    "name" : "Starting Your Own Podcast: Tips, Tricks, and Advice From Anchor Creators\n",
    "release_date" : "1981-12-15",
    "release_date_precision" : "day",
    "resume_point" : {
      "fully_played" : true,
      "resume_position_ms" : 0
    },
    "type" : "episode",
    "uri" : "spotify:episode:0zLhl3WsOCQHbe1BPTiHgr",
    "restrictions" : {
      "reason" : "string"
    }
  } ],
  "limit" : 20,
  "next" : "https://api.spotify.com/v1/me/shows?offset=1&amp;limit=1",
  "offset" : 0,
  "previous" : "https://api.spotify.com/v1/me/shows?offset=1&amp;limit=1",
  "total" : 4
}</con:sampleContent>
    </con:representation>
    <con:representation type="RESPONSE">
      <con:mediaType>application/json</con:mediaType>
      <con:status>401</con:status>
      <con:params/>
      <con:description>Bad or expired token. This can happen if the user revoked a token or
the access token has expired. You should re-authenticate the user.</con:description>
      <con:sampleContent>{
  "error" : {
    "status" : 0,
    "message" : "string"
  }
}</con:sampleContent>
    </con:representation>
    <con:representation type="RESPONSE">
      <con:mediaType>application/json</con:mediaType>
      <con:status>403</con:status>
      <con:params/>
      <con:description>Bad OAuth request (wrong consumer key, bad nonce, expired
timestamp...). Unfortunately, re-authenticating the user won't help here.</con:description>
      <con:sampleContent>{
  "error" : {
    "status" : 0,
    "message" : "string"
  }
}</con:sampleContent>
    </con:representation>
    <con:representation type="RESPONSE">
      <con:mediaType>application/json</con:mediaType>
      <con:status>429</con:status>
      <con:params/>
      <con:description>The app has exceeded its rate limits.</con:description>
      <con:sampleContent>{
  "error" : {
    "status" : 0,
    "message" : "string"
  }
}</con:sampleContent>
    </con:representation>
    <con:request name="Request 1" id="567d542f-8cde-4393-8b68-dc777e42c534" mediaType="application/json">
      <con:settings/>
      <con:endpoint>https://api.spotify.com/v1</con:endpoint>
      <con:credentials>
        <con:selectedAuthProfile>No Authorization</con:selectedAuthProfile>
        <con:authType>No Authorization</con:authType>
      </con:credentials>
      <con:parameters/>
      <con:environmentSpec>
        <con:entry environmentId="6faab8de-327e-404a-ad6a-92c2673cba40">
          <con:authProfile>Inherit From Parent</con:authProfile>
        </con:entry>
        <con:entry environmentId="d7b5f83c-9bb2-4dbe-b0f3-66f69604eefd">
          <con:authProfile>Inherit From Parent</con:authProfile>
        </con:entry>
      </con:environmentSpec>
    </con:request>
    <con:environmentSpec>
      <con:entry environmentId="6faab8de-327e-404a-ad6a-92c2673cba40">
        <con:authProfile>Inherit From Parent</con:authProfile>
      </con:entry>
      <con:entry environmentId="d7b5f83c-9bb2-4dbe-b0f3-66f69604eefd">
        <con:authProfile>Inherit From Parent</con:authProfile>
      </con:entry>
    </con:environmentSpec>
  </con:method>
  <con:environmentSpec>
    <con:entry environmentId="6faab8de-327e-404a-ad6a-92c2673cba40">
      <con:authProfile>Inherit From Parent</con:authProfile>
    </con:entry>
    <con:entry environmentId="d7b5f83c-9bb2-4dbe-b0f3-66f69604eefd">
      <con:authProfile>Inherit From Parent</con:authProfile>
    </con:entry>
  </con:environmentSpec>
</con:resource>
